…
    ## # A tibble: 26 x 3
    ## # Groups:   code [4]
    ##    Date       code  Visitors
    ##    <date>     <chr>    <dbl>
    ##  1 2020-07-07 USA         51
    ##  2 2020-07-22 USA         32
    ##  3 2020-07-24 USA         32
    ##  4 2021-03-24 USA         29
    ##  5 2020-07-08 USA         28
    ##  6 2020-10-01 USA         28
    ##  7 2020-10-05 USA         28
    ##  8 2020-11-12 USA         28
    ##  9 2021-02-22 USA         28
    ## 10 2020-10-06 USA         26
    ## # … with 16 more rows
…
